\relax 
\citation{mehdizadeh2004}
\citation{cossali1997impact}
\citation{pan2009binary}
\citation{roisman2010instability}
\citation{agbaglah2013longitudinal}
\citation{zhang2010wavelength}
\citation{zhang2010wavelength}
\citation{liu2016numerical}
\@writefile{toc}{\contentsline {section}{\numberline {1}Introduction}{1}}
\newlabel{sec:intro}{{1}{1}}
\citation{liu2016numerical}
\citation{liu2016numerical}
\citation{pan2009binary}
\citation{pan2009binary}
\citation{pan2009binary}
\@writefile{toc}{\contentsline {section}{\numberline {2}Governing equations}{3}}
\@writefile{toc}{\contentsline {section}{\numberline {3}Numerical methods}{3}}
\@writefile{toc}{\contentsline {section}{\numberline {4}Simulation results}{3}}
\@writefile{toc}{\contentsline {subsection}{\numberline {4.1}z.B. more general }{3}}
\@writefile{toc}{\contentsline {subsection}{\numberline {4.2}z.B. more about the nonlinear unstable phase}{3}}
\@writefile{lof}{\contentsline {figure}{\numberline {1}{\ignorespaces Photographs and visualized simulation results of the head-on collision of water droplets with $We=805.2$, $Re=6370.0$. (a) experimental result of Pan et al. \cite  {pan2009binary}. (b) simulation results without initial disturbance. (c) simulation result with an initial disturbance of $\Delta U =1\%$. The post-processing in the simulations is conducted with POV-Ray.}}{4}}
\newlabel{fig:we805}{{1}{4}}
\@writefile{toc}{\contentsline {subsection}{\numberline {4.3}Visualization of the origin of the ejected droplets}{5}}
\@writefile{lof}{\contentsline {figure}{\numberline {2}{\ignorespaces Top view of interface evolution in the case $We=442.3$ with initial disturbance of $\Delta U=1\%$. The same simulation as shown in Figure \G@refundefinedtrue {\unhbox \voidb@x \hbox {\normalfont  \bfseries  ??}}\GenericWarning  {               }{LaTeX Warning: Reference `fig:we442' on page 6 undefined} (c).}}{6}}
\newlabel{fig:splashing_shapes_more}{{2}{6}}
\@writefile{lof}{\contentsline {figure}{\numberline {3}{\ignorespaces Pressure field and velocity field of case $We = 442.3$ with initial disturbance of $\Delta U = 1\%$. The same simulation as shown in Figure \G@refundefinedtrue {\unhbox \voidb@x \hbox {\normalfont  \bfseries  ??}}\GenericWarning  {               }{LaTeX Warning: Reference `fig:we442' on page 7 undefined} (c).}}{7}}
\newlabel{fig:splashing_p_u}{{3}{7}}
\citation{Lorensen:1987:MCH:37402.37422}
\@writefile{lof}{\contentsline {figure}{\numberline {4}{\ignorespaces  Visualization of the droplet segmentation. On the left, the droplet before breakup is shown. Its volume is partitioned such that each segment corresponds to different satellite droplet after breakup. Notice the irregular pattern, and overlapping segments on the top and in the middle. On the right, the droplet after breakup is shown, with droplet colors corresponding to the segments in the other figure. The figure on the left has been enlarged for better analysis---the red box in the right figure marks its relative size. }}{8}}
\newlabel{fig:result}{{4}{8}}
\citation{ParaViewGuide}
\citation{EGPGV:EGPGV11:131-140}
\@writefile{toc}{\contentsline {section}{\numberline {5}Summary and conclusion}{10}}
\newlabel{sec:summary}{{5}{10}}
\bibdata{highresolution}
\bibcite{agbaglah2013longitudinal}{{1}{}{{}}{{}}}
\bibcite{cossali1997impact}{{2}{}{{}}{{}}}
\bibcite{liu2016numerical}{{3}{}{{}}{{}}}
\bibcite{mehdizadeh2004}{{4}{}{{}}{{}}}
\@writefile{lof}{\contentsline {figure}{\numberline {5}{\ignorespaces Subdivision of the collision process into three sequential connected signal amplification system (indicated as I, II and III) based on the geometrical characteristic of the rim.}}{11}}
\newlabel{fig:system_division}{{5}{11}}
\bibcite{pan2009binary}{{5}{}{{}}{{}}}
\bibcite{roisman2010instability}{{6}{}{{}}{{}}}
\bibcite{zhang2010wavelength}{{7}{}{{}}{{}}}
\bibstyle{plain}
\providecommand\NAT@force@numbers{}\NAT@force@numbers
